A D/Ope_helmholtz_minus_2d////
A D/Ope_helmholtz_minus_pseudo_1d////
A D/Ope_pois_vect_r////
A D/Ope_poisson_2d////
A D/Ope_poisson_pseudo_1d////
A D/Ope_sec_order////
A D/Ope_sec_order_r2////
A D/Ope_vorton////
